Sourcing in ACLED • acledR
…
Let’s do this for the sources column, which has sources delimited by
;

sources_df_geo <- df_geo %>%
      tidyr::separate_rows(source, sep = ";") %>%
      mutate(source = stringr::str_trim(source,side = "both")) %>%
      relocate(source,.before="source_scale")

sources_df_geo %>%
  group_by(source)%>%
  tally() %>%
  arrange(-n)

## # A tibble: 22 × 2
##    source                            n
##    <chr>                         <int>
##  1 Rustavi 2                       172
##  2 Interpressnews                  153
##  3 RFE/RL                          147
##  4 Mtavari Arkhi                    91
##  5 Caucasian Knot                   77
##  6 Agenda.ge                        68
##  7 Imedinews.ge                     65
##  8 Civil Georgia                    39
##  9 Black Sea Press: News Georgia    35
## 10 Netgazeti.ge                     25
## # … with 12 more rows
…
