Transformation of ACLED data • acledR
…
The code above provides us with the dataset of events in Argentina
during June 2022.

After this we need to transform our dataset to long form, where each
actor is a new row. For that we use acled_transform():

argen_acled_long_actors <- acled_transform(argen_acled,type = "full_actors")
  
print(argen_acled)

## # A tibble: 327 × 31
##    data_id   iso event…¹ event…² event_date  year time_…³ event…⁴ sub_e…⁵ actor1
##      <dbl> <dbl> <chr>     <dbl> <date>     <dbl>   <dbl> <chr>   <chr>   <chr> 
##  1 9388200    32 ARG106…   10607 2022-06-30  2022       1 Protes… Peacef… Prote…
##  2 9388331    32 ARG106…   10626 2022-06-30  2022       1 Protes… Peacef… Prote…
##  3 9388387    32 ARG106…   10618 2022-06-30  2022       1 Protes… Peacef… Prote…
##  4 9388408    32 ARG106…   10615 2022-06-30  2022       1 Protes… Peacef… Prote…
##  5 9388409    32 ARG106…   10627 2022-06-30  2022       1 Protes… Peacef… Prote…
##  6 9388410    32 ARG106…   10625 2022-06-30  2022       1 Protes… Peacef… Prote…
##  7 9388411    32 ARG106…   10621 2022-06-30  2022       1 Protes… Peacef… Prote…
##  8 9388412    32 ARG106…   10613 2022-06-30  2022       1 Protes… Peacef… Prote…
##  9 9388413    32 ARG106…   10614 2022-06-30  2022       1 Protes… Peacef… Prote…
## 10 9388414    32 ARG106…   10617 2022-06-30  2022       1 Protes… Peacef… Prote…
## # … with 317 more rows, 21 more variables: assoc_actor_1 <chr>, inter1 <dbl>,
## #   actor2 <chr>, assoc_actor_2 <chr>, inter2 <dbl>, interaction <dbl>,
## #   region <chr>, country <chr>, admin1 <chr>, admin2 <chr>, admin3 <lgl>,
## #   location <chr>, latitude <dbl>, longitude <dbl>, geo_precision <dbl>,
## #   source <chr>, source_scale <chr>, notes <chr>, fatalities <dbl>,
## #   timestamp <dbl>, iso3 <chr>, and abbreviated variable names ¹​event_id_cnty,
## #   ²​event_id_no_cnty, ³​time_precision, ⁴​event_type, ⁵​sub_event_type

Now we have a dataset where every row contains only one actor,
meaning that now we only have to look for uniques in the new dataset’s
actor column. For this, we will utilize
dplyr::distinct().

argen_acled_nodes <- argen_acled_long_actors %>%
  dplyr::distinct(actor) ## When utilizing the option "full_actors", the actors will be stored in the column named "actor"

argen_acled_nodes 

## # A tibble: 61 × 1
##    actor                                           
##    <chr>                                           
##  1 Protesters (Argentina)                          
##  2 SISAP: Public Health Union                      
##  3 Health Workers (Argentina)                      
##  4 ATE: Association of State Workers               
##  5 Labour Group (Argentina)                        
##  6 MLS: Freemen of the South Movement              
##  7 Teachers (Argentina)                            
##  8 SIPRUS: Union of University Health Professionals
##  9 Students (Argentina)                            
## 10 ADEMYS: Teacher's Association                   
## # … with 51 more rows
…
