Exploratory Data Analysis with acledR • acledR
…
You now have a new column for the requested moving
average: total_events_moving_mean_3. Take a look
at the first few rows of our new tibble:

df_india_agg_movers %>% 
  dplyr::select(country, 
                event_month, 
                total_events, 
                total_events_moving_mean_3)
#> # A tibble: 52 × 4
#> # Groups:   country [1]
#>    country event_month total_events total_events_moving_mean_3
#>    <chr>   <date>             <dbl>                      <dbl>
#>  1 India   2018-01-01          1367                        NA 
#>  2 India   2018-02-01          1119                        NA 
#>  3 India   2018-03-01          1315                        NA 
#>  4 India   2018-04-01          1865                      1267 
#>  5 India   2018-05-01          1499                      1433 
#>  6 India   2018-06-01          1279                      1560.
#>  7 India   2018-07-01          1442                      1548.
#>  8 India   2018-08-01          1788                      1407.
#>  9 India   2018-09-01          2058                      1503 
#> 10 India   2018-10-01          1665                      1763.
#> # ℹ 42 more rows
…
To see how this would change the returned values, try the
following:

acled_generate_movers(data = df_india_agg,
                  var = "total_events",
                  unit_id = "country",
                  time_id = "event_month",
                  slide_funs = "mean",
                  slide_periods = 3,
                  complete = F) %>% 
  dplyr::select(country, event_month, total_events, 
         total_events_moving_mean_3)
#> # A tibble: 52 × 4
#> # Groups:   country [1]
#>    country event_month total_events total_events_moving_mean_3
#>    <chr>   <date>             <dbl>                      <dbl>
#>  1 India   2018-01-01          1367                       NaN 
#>  2 India   2018-02-01          1119                      1367 
#>  3 India   2018-03-01          1315                      1243 
#>  4 India   2018-04-01          1865                      1267 
#>  5 India   2018-05-01          1499                      1433 
#>  6 India   2018-06-01          1279                      1560.
#>  7 India   2018-07-01          1442                      1548.
#>  8 India   2018-08-01          1788                      1407.
#>  9 India   2018-09-01          2058                      1503 
#> 10 India   2018-10-01          1665                      1763.
#> # ℹ 42 more rows
…
