Generate Moving Statistics • acledR
…
We now have two new columns for the two requested moving averages: total_events_moving_mean_3. We can look at the first few rows of our variables of interest:

df_india_agg_movers %>% 
  dplyr::select(country, 
                event_month, 
                total_events, 
                total_events_moving_mean_3)
#> # A tibble: 52 × 4
#> # Groups:   country [1]
#>    country event_month total_events total_events_moving_mean_3
#>    <chr>   <date>             <dbl>                      <dbl>
#>  1 India   2018-01-01          1337                        NA 
#>  2 India   2018-02-01          1054                        NA 
#>  3 India   2018-03-01          1246                        NA 
#>  4 India   2018-04-01          1794                      1212.
#>  5 India   2018-05-01          1441                      1365.
#>  6 India   2018-06-01          1228                      1494.
#>  7 India   2018-07-01          1401                      1488.
#>  8 India   2018-08-01          1762                      1357.
#>  9 India   2018-09-01          2019                      1464.
#> 10 India   2018-10-01          1648                      1727.
#> # … with 42 more rows

Note that the first 3 months for total_events_moving_mean_3 are missing. This is because there has not been enough elapsed time in the sample to calculate a complete moving statistic of the requested temporal length. This default behavior can be turned off by setting complete = F in the generate_movers() call.

To see how this would change the returned values, consider the following:

generate_movers(data = df_india_agg,
                  var = "total_events",
                  unit_id = "country",
                  time_id = "event_month",
                  slide_funs = "mean",
                  slide_periods = 3,
                  complete = F) %>% 
  dplyr::select(country, event_month, total_events, 
         total_events_moving_mean_3)
#> # A tibble: 52 × 4
#> # Groups:   country [1]
#>    country event_month total_events total_events_moving_mean_3
#>    <chr>   <date>             <dbl>                      <dbl>
#>  1 India   2018-01-01          1337                       NaN 
#>  2 India   2018-02-01          1054                      1337 
#>  3 India   2018-03-01          1246                      1196.
#>  4 India   2018-04-01          1794                      1212.
#>  5 India   2018-05-01          1441                      1365.
#>  6 India   2018-06-01          1228                      1494.
#>  7 India   2018-07-01          1401                      1488.
#>  8 India   2018-08-01          1762                      1357.
#>  9 India   2018-09-01          2019                      1464.
#> 10 India   2018-10-01          1648                      1727.
#> # … with 42 more rows
…
